13:15:14%043
13:17:58%043
13:24:34%044
13:34:18%045
13:37:27%045
13:39:59%046
13:49:43%046
13:55:32%047
14:01:05%047
14:05:56%047
14:07:22%048
14:09:44%048
14:17:18%048
14:40:25%051
14:42:27%052
14:47:19%052
14:53:48%052
15:24:37%053
15:25:36%053
15:26:15%053
15:27:04%053
15:27:28%053
15:27:53%054
15:28:11%054
15:28:17%054
15:30:18%054
15:31:22%054
15:31:31%054
15:32:42%054
15:34:39%054
15:35:03%054
15:35:10%054
15:35:35%054
15:36:16%054
15:36:23%054
15:38:49%054
15:40:52%054
15:40:57%054
15:41:48%054
15:42:05%054
15:42:22%054
15:42:28%054
15:43:49%054
15:44:31%054
15:45:19%054
15:45:40%054
15:47:38%054
15:48:27%054
15:49:22%054
15:49:36%054
15:51:59%054
15:52:37%054
15:53:50%054
15:54:15%054
15:54:39%054
15:54:50%054
15:55:03%054
15:55:27%054
15:55:42%054
15:56:16%054
15:57:05%054
15:57:29%054
15:58:53%054
15:59:02%054
16:01:16%054
16:01:32%054
16:02:11%054
16:03:10%054
16:03:34%054
16:03:59%054
16:04:47%054
16:07:34%054
16:07:38%053
16:08:27%053
16:12:05%053
16:13:22%053
16:13:23%053
16:13:40%053
16:13:43%053
16:14:47%053
16:15:20%053
16:15:42%053
16:15:44%053
16:16:57%053
16:17:26%053
16:17:32%053
16:19:24%053
16:19:30%053
16:21:50%053
16:24:16%053
16:25:04%053
16:25:29%053
16:25:47%053
16:26:17%053
16:27:06%053
16:29:08%053
16:31:21%054
16:31:34%054
16:32:23%054
16:34:00%054
16:35:13%054
16:35:58%054
16:36:02%054
16:36:26%054
16:36:48%054
16:37:07%054
16:38:18%054
16:40:29%054
16:41:18%054
16:42:04%054
16:42:42%054
16:44:33%054
16:45:51%054
16:46:25%054
16:46:35%054
16:47:02%054
16:47:52%053
16:48:09%053
16:50:14%053
16:50:46%053
16:50:58%053
16:52:12%053
16:52:15%053
16:52:56%053
17:05:54%052
17:10:06%052
17:10:31%052
17:12:32%051
17:14:34%051
17:15:57%051
17:17:42%051
17:17:49%051
17:19:09%051
17:19:26%051
17:19:26%051
17:20:37%051
17:21:54%051
17:22:43%051
17:23:56%051
17:25:58%051
17:27:59%051
17:34:53%051
17:35:18%051
17:35:24%051
17:36:06%051
17:38:08%051
17:41:46%051
17:42:08%051
17:42:32%051
17:43:24%051
17:43:43%051
17:45:17%050
17:46:07%050
17:46:08%050
17:46:25%050
17:47:28%050
17:48:50%050
17:49:05%050
17:51:55%050
17:52:40%050
17:52:47%050
17:52:48%050
17:53:22%050
17:54:14%050
18:01:48%050
18:04:05%050
18:06:41%050
18:07:00%050
18:07:19%050
18:08:54%049
18:09:18%049
18:09:36%049
18:12:13%049
18:13:26%049
18:17:09%049
18:18:39%049
18:20:19%049
18:22:45%048
18:23:30%048
18:23:34%048
18:24:23%048
18:25:32%048
18:25:36%048
18:27:50%048
18:27:56%048
18:29:19%048
18:31:36%048
18:37:24%048
18:37:46%048
18:38:59%048
18:39:48%048
18:40:36%048
18:40:56%048
18:41:23%048
18:42:38%048
18:43:51%048
18:45:34%047
18:46:30%047
18:50:13%047
18:51:18%047
18:51:18%047
18:51:58%047
18:52:28%047
18:54:30%047
18:55:37%047
18:56:26%047
18:58:51%047
18:59:40%047
18:59:57%047
19:00:00%047
19:01:49%047
19:04:46%047
19:04:57%047
19:05:21%047
19:07:54%048
19:15:05%048
19:16:18%048
19:16:58%048
19:18:20%048
19:18:55%048
19:19:33%048
19:20:22%048
19:21:09%048
19:22:01%048
19:22:04%048
19:22:23%048
19:25:29%048
19:26:47%048
19:30:54%048
19:35:03%048
19:35:46%048
19:36:14%048
19:45:55%049
19:46:28%048
19:46:38%048
19:46:44%048
19:47:08%048
19:47:39%048
19:48:24%048
19:50:24%048
19:51:35%048
19:57:29%048
19:58:30%048
20:00:55%047
20:02:34%047
20:05:34%047
20:06:19%047
20:06:54%047
20:06:56%047
20:09:13%047
20:09:17%047
20:11:04%047
20:12:41%047
20:13:06%047
20:15:07%047
20:16:20%048
20:17:33%048
20:19:39%048
20:19:54%048
20:22:25%049
20:24:03%049
20:24:36%049
20:25:09%049
20:25:32%049
20:26:04%049
20:28:06%049
20:28:57%049
20:29:44%049
20:29:47%049
20:30:08%049
20:30:21%049
20:30:32%049
20:32:53%049
20:33:15%049
20:33:22%049
20:37:26%049
20:37:50%049
20:37:54%049
20:38:01%049
20:38:47%049
20:40:30%049
20:40:41%049
20:41:05%049
20:42:44%049
20:43:54%049
20:44:34%049
20:46:40%049
20:51:38%048
20:52:05%048
20:52:10%048
20:52:26%048
20:53:39%048
20:54:04%048
20:54:42%048
20:56:43%048
20:56:54%048
20:58:10%048
20:58:45%048
20:59:19%048
20:59:39%048
21:00:33%048
21:01:13%048
21:01:21%048
21:01:46%048
21:03:23%048
21:03:24%048
21:03:48%048
21:04:15%048
21:04:22%048
21:04:36%048
21:05:01%047
21:05:49%047
21:06:14%047
21:06:20%047
21:10:16%047
21:11:13%047
21:11:50%047
21:12:14%047
21:12:38%047
21:14:36%047
21:14:45%047
21:16:25%047
21:16:34%047
21:16:42%047
21:17:34%047
21:23:04%047
21:23:06%047
21:23:22%047
21:23:22%047
21:23:40%047
21:25:13%047
21:26:00%047
21:27:11%047
21:29:21%047
21:37:01%047
21:37:25%046
21:37:52%046
21:39:53%046
21:41:07%046
21:43:56%046
21:45:05%046
21:46:51%046
21:47:36%046
21:50:24%046
21:53:16%047
21:53:33%047
21:54:29%047
21:54:44%047
21:57:53%047
21:58:07%047
21:58:57%047
21:59:00%047
21:59:46%047
22:01:47%047
22:02:59%047
22:03:47%047
22:04:13%047
22:04:34%047
22:05:02%047
22:07:58%048
22:08:15%048
22:08:17%048
22:09:30%048
22:11:07%048
22:11:15%048
22:11:44%048
22:12:44%048
22:14:46%048
22:15:59%048
22:17:32%048
22:17:56%048
22:25:21%048
22:25:38%048
22:26:32%048
22:28:49%048
22:31:24%048
22:32:12%048
22:34:38%048
22:35:46%048
22:36:21%048
22:37:29%048
22:37:31%048
22:37:36%048
22:39:30%048
22:41:56%048
22:43:52%048
22:43:53%048
22:43:54%048
22:45:29%048
22:47:39%048
22:47:50%048
22:49:48%048
22:52:29%048
22:53:18%048
22:54:59%048
22:55:55%048
22:56:50%048
22:57:41%048
22:58:28%048
23:00:41%048
23:00:49%048
23:01:00%048
23:02:37%048
23:03:00%048
23:03:02%048
23:04:45%048
23:13:32%048
23:14:15%048
23:14:20%048
23:14:57%048
23:15:09%048
23:15:33%048
23:15:44%048
23:18:24%048
23:20:03%049
23:23:12%049
23:23:36%049
23:24:47%049
23:25:17%049
23:25:42%049
23:31:05%049
23:32:16%049
23:32:35%049
23:33:00%049
23:33:04%049
23:33:24%049
23:37:22%049
23:37:46%049
23:39:20%049
23:40:42%050
23:44:22%050
23:44:27%050
23:44:45%050
23:45:10%050
23:45:49%050
23:45:58%050
23:46:47%050
23:47:23%050
23:49:37%050
23:50:02%050
23:51:15%050
23:51:20%050
23:51:32%050
23:51:39%050
23:52:29%050
23:52:46%050
23:52:52%050
23:54:54%050
23:57:44%050
23:58:37%050
23:59:27%050
23:59:46%050
00:00:01%050
00:00:10%050
00:02:41%050
00:02:55%050
00:02:57%050
00:03:49%050
00:04:07%050
00:05:01%050
00:05:42%050
00:05:48%050
00:05:51%050
00:07:48%051
00:08:59%051
00:09:06%051
00:11:03%051
00:12:47%051
00:13:22%051
00:16:13%051
00:16:19%051
00:17:06%051
00:17:23%051
00:17:30%051
00:18:01%051
00:21:50%051
00:22:01%051
00:22:01%051
00:22:04%051
00:22:18%051
00:22:29%051
00:24:55%051
00:25:43%051
00:27:31%051
00:27:44%051
00:29:08%051
00:29:16%051
00:30:06%051
00:30:29%051
00:31:48%052
00:35:27%052
00:36:00%052
00:37:29%052
00:40:19%052
00:40:43%052
00:42:21%052
00:42:41%052
00:43:52%052
00:44:23%052
00:45:36%052
00:46:21%052
00:46:25%052
00:46:49%052
00:48:26%052
00:49:15%052
00:50:28%052
00:52:48%052
00:54:07%052
00:54:56%052
00:55:02%052
00:55:02%052
00:55:07%052
00:55:20%052
00:55:54%052
00:55:55%052
00:57:21%052
00:58:02%052
01:00:12%052
01:02:14%052
01:02:34%052
01:02:38%052
01:07:52%052
01:08:05%052
01:09:50%053
01:10:14%053
01:10:45%053
01:11:58%053
01:18:03%053
01:18:27%053
01:18:52%053
01:20:04%053
01:20:51%053
01:22:49%053
01:22:55%053
01:24:57%053
01:26:22%053
01:26:45%053
01:29:00%053
01:29:49%053
01:30:37%053
01:32:07%053
01:32:15%053
01:35:54%053
01:37:20%053
01:37:21%053
01:37:56%053
01:38:29%053
01:38:33%053
01:39:04%053
01:39:39%054
01:39:44%054
01:39:57%054
01:40:22%054
01:40:36%054
01:41:06%054
01:41:10%054
01:42:06%054
01:42:32%054
01:42:33%054
01:42:50%054
01:42:53%054
01:45:44%054
01:46:02%054
01:47:13%054
01:49:30%054
01:49:34%054
01:50:45%054
01:51:31%054
01:53:21%054
01:54:09%054
01:55:05%054
01:55:22%054
01:55:47%054
01:56:35%054
01:57:19%054
01:57:19%054
01:57:24%054
01:58:13%054
01:58:29%054
01:58:37%054
01:58:46%054
01:59:09%054
01:59:25%054
01:59:38%054
01:59:48%054
02:00:59%054
02:01:27%054
02:02:10%054
02:02:16%054
02:02:57%054
02:03:21%054
02:03:45%054
02:05:55%054
02:06:06%054
02:06:44%054
02:08:21%053
02:09:15%054
02:10:23%053
02:13:50%053
02:13:58%053
02:14:22%053
02:14:42%053
02:14:42%053
02:15:33%053
02:15:39%053
02:16:09%053
02:16:20%053
02:16:26%053
02:16:28%053
02:17:07%053
02:17:31%053
02:17:36%053
02:17:41%053
02:17:54%053
02:18:10%053
02:18:18%053
02:18:28%053
02:18:30%053
02:18:46%053
02:18:54%053
02:19:03%053
02:19:03%053
02:19:05%053
02:19:43%053
02:20:31%053
02:21:20%053
02:21:25%053
02:22:09%053
02:22:33%053
02:24:10%053
02:24:32%053
02:24:35%053
02:25:24%053
02:25:47%053
02:25:59%053
02:26:00%053
02:26:10%053
02:26:37%053
02:26:57%053
02:28:32%053
02:28:38%053
02:30:40%053
02:31:17%053
02:35:56%053
02:36:45%053
02:37:34%053
02:38:23%053
02:40:44%053
02:41:21%053
02:41:31%053
02:43:15%053
02:44:40%053
02:45:51%053
02:48:55%053
02:53:19%053
02:53:43%052
02:56:25%052
02:58:03%052
02:58:15%052
03:00:48%052
03:05:24%052
03:05:59%052
03:09:04%052
03:11:49%052
03:13:40%052
03:14:04%052
03:14:11%052
03:14:47%052
03:18:54%052
03:19:00%052
03:19:17%052
03:19:35%052
03:19:41%052
03:20:05%052
03:20:44%052
03:21:39%052
03:23:00%052
03:24:37%052
03:25:02%052
03:26:39%052
03:27:03%052
03:27:24%052
03:27:46%052
03:33:33%052
03:36:13%052
03:37:50%052
03:38:01%052
03:38:42%052
03:38:49%052
03:39:14%052
03:42:29%052
03:43:17%052
03:46:27%052
03:46:49%051
03:47:38%051
03:52:54%051
03:53:17%051
03:54:04%051
03:54:14%051
03:54:38%051
03:55:03%051
03:55:12%051
03:57:00%051
03:57:14%051
03:57:29%051
03:57:50%051
03:57:51%051
03:58:15%051
03:59:47%051
04:01:35%051
04:01:38%051
04:04:11%050
04:04:23%050
04:05:43%050
04:07:38%050
04:09:58%050
04:11:14%050
04:12:01%050
04:12:48%050
04:12:53%050
04:12:54%050
04:16:09%049
04:17:53%049
04:19:24%049
04:19:44%049
04:19:54%049
04:23:54%048
04:24:13%048
04:25:55%048
04:29:40%048
04:30:15%048
04:32:47%048
04:34:00%048
04:34:24%048
04:36:49%047
04:38:23%047
04:40:29%047
04:42:31%047
04:43:20%047
04:44:47%047
04:45:01%047
04:45:01%047
04:45:04%047
04:45:19%047
04:45:21%047
04:45:53%047
04:49:47%046
04:50:30%046
04:53:52%046
04:55:30%046
04:56:43%046
04:57:27%046
04:58:44%046
05:01:29%046
05:04:26%046
05:06:27%045
05:06:51%045
05:07:30%045
05:08:17%045
05:09:04%045
05:09:38%045
05:09:42%045
05:10:30%045
05:11:26%045
05:12:08%045
05:17:48%045
05:18:31%045
05:18:37%045
05:22:39%045
05:23:05%045
05:23:53%044
05:24:25%044
05:25:31%044
05:26:25%044
05:26:44%044
05:30:45%044
05:31:06%044
05:34:02%044
05:35:50%044
05:38:54%043
05:39:59%043
05:40:07%043
05:44:52%043
05:48:13%043
05:48:48%042
05:49:59%042
05:50:44%042
05:53:30%042
05:55:29%042
05:57:09%041
05:59:02%041
06:01:36%041
06:06:22%040
06:06:57%040
06:07:13%040
06:07:31%040
06:07:31%040
06:07:41%040
06:08:06%040
06:10:25%040
06:10:26%040
06:11:20%040
06:15:09%040
06:16:12%040
06:16:20%040
06:22:38%039
06:25:32%039
06:27:12%039
06:28:46%039
06:33:14%038
06:33:34%038
06:33:38%038
06:46:35%037
06:46:36%037
06:52:07%037
06:53:54%037
06:55:07%037
06:55:51%037
06:55:56%037
07:01:10%036
07:10:31%036
07:10:36%036
07:11:47%036
07:13:22%036
07:14:59%036
07:22:17%035
07:22:41%035
07:22:48%035
07:23:30%035
07:23:55%035
07:25:07%035
07:26:44%035
07:29:06%035
07:34:59%035
07:36:02%035
07:37:29%035
07:37:47%035
07:39:31%035
07:39:49%035
07:45:17%035
07:47:02%036
07:47:25%036
07:48:13%036
07:49:51%036
07:51:28%037
07:52:40%037
07:53:23%037
07:57:47%039
07:58:58%039
08:02:00%040
08:02:49%040
08:07:41%041
08:08:01%041
08:09:42%041
08:12:20%041
08:14:14%041
08:14:59%041
08:16:36%042
08:20:53%042
08:22:03%042
08:25:14%042
08:27:57%042
08:38:17%043
08:42:57%044
08:47:43%044
08:48:40%044
08:48:41%044
08:50:42%044
08:51:04%044
08:55:55%044
08:56:44%044
08:57:32%044
08:58:20%044
09:01:11%045
09:03:10%045
09:03:27%045
09:06:20%045
09:06:52%045
09:08:57%045
09:10:06%045
09:12:08%045
09:13:35%045
09:13:45%045
09:14:34%045
09:15:23%045
09:17:00%045
09:19:22%045
09:19:26%045
09:20:14%045
09:27:32%045
09:29:48%045
09:31:35%045
09:33:37%046
09:40:17%046
09:46:18%046
09:47:09%046
09:47:10%046
09:47:30%046
09:51:32%046
09:54:20%046
10:00:00%046
10:01:37%046
10:02:02%046
10:06:29%047
10:06:54%047
10:09:20%047
10:09:44%047
10:10:08%047
10:15:34%048
10:17:53%048
10:18:45%048
10:19:00%048
10:23:31%048
10:24:33%048
10:24:44%048
10:24:50%048
10:24:54%048
10:30:25%049
10:30:48%049
10:34:41%049
10:36:30%049
10:38:07%050
10:39:20%050
10:45:21%050
10:48:39%051
10:53:56%051
10:56:22%051
10:57:35%051
10:58:23%051
11:01:14%050
11:02:02%050
11:03:15%050
11:03:40%050
11:11:43%050
11:12:51%050
11:13:38%050
11:14:04%050
11:14:25%050
11:14:55%050
11:23:04%050
11:27:11%050
11:28:34%050
11:32:02%050
11:32:27%050
11:34:28%051
11:39:45%051
11:41:09%051
11:41:46%051
11:43:53%051
11:45:25%051
11:46:14%051
11:48:16%051
11:56:19%052
11:57:30%051
11:58:24%052
12:02:43%051
12:05:55%051
12:19:05%051
12:29:06%051
12:31:15%050
12:31:52%050
12:32:32%050
12:32:52%050
12:33:07%050
12:33:16%050
12:42:40%050
12:46:15%050
12:52:18%050
12:57:36%050
12:59:38%050
13:02:52%050
13:04:53%050
13:05:17%050
13:06:04%050
13:07:15%050
13:17:52%049
13:20:37%049
13:21:01%049
13:22:20%049
13:25:35%049
13:26:07%049
13:36:32%048
13:41:00%048
13:43:01%048
13:44:14%048
13:47:04%048
13:50:19%048
13:51:56%048
13:52:45%048
13:53:39%047
13:53:58%047
14:02:17%047
14:02:52%047
14:03:18%047
14:04:06%047
14:10:10%046
14:16:03%046
14:16:41%046
14:23:08%045
14:29:15%045
14:34:31%045
14:38:52%045
14:40:36%044
14:43:02%044
14:47:26%044
14:48:19%044
14:58:25%044
15:02:29%043
15:13:50%043
15:16:36%042
15:28:02%042
15:32:05%041
15:32:20%041
15:32:43%041
15:41:46%040
15:42:25%040
15:46:16%040
15:48:50%040
15:55:55%039
16:03:18%038
16:17:53%037
16:25:35%036
16:29:38%036
16:34:54%035
16:40:35%035
16:48:35%034
16:49:22%034
16:49:54%034
16:55:18%034
16:59:38%034
17:10:02%033
17:10:58%033
17:11:12%033
17:15:50%033
17:16:14%033
17:19:52%033
17:20:58%033
17:23:07%033
17:23:56%033
17:25:04%032
17:34:53%032
17:42:10%031
17:46:56%031
17:47:08%031
17:56:21%030
18:01:36%030
18:02:49%030
18:12:28%030
18:15:23%029
18:16:11%029
18:16:37%029
18:29:31%032
18:40:16%040
18:40:48%040
18:44:27%043
18:48:20%045
18:53:14%047
18:53:43%047
19:01:20%049
19:01:32%049
19:09:01%049
19:10:01%049
19:22:59%049
19:23:46%049
19:30:03%049
19:32:25%049
19:33:57%049
19:34:46%049
19:35:13%049
19:35:56%049
19:37:08%050
19:37:19%050
19:39:53%052
19:41:36%053
19:41:36%053
19:41:39%053
19:44:05%055
19:44:13%055
19:44:36%056
19:46:34%057
20:19:22%081
20:21:59%083
20:24:38%084
20:25:07%085
20:25:08%085
20:25:27%085
20:26:16%085
20:26:17%085
20:26:19%085
20:26:43%085
20:27:06%086
20:27:30%086
20:28:18%086
20:28:54%086
20:28:54%086
20:28:54%086
20:28:54%086
20:28:54%086
20:29:04%086
20:29:11%086
20:29:12%086
20:29:47%086
20:30:03%086
20:30:15%085
20:31:02%085
20:34:11%084
20:35:00%083
20:35:22%083
20:36:33%083
20:37:44%081
20:38:12%081
20:38:12%081
20:38:31%081
20:38:55%081
20:40:06%080
20:43:15%078
20:44:02%077
20:46:47%073
20:48:40%071
20:48:45%071
20:49:09%071
20:51:04%071
20:54:16%072
20:55:38%074
20:56:10%074
20:56:38%074
20:57:49%075
20:58:36%075
21:00:35%076
21:00:58%076
21:04:54%077
21:05:18%077
21:06:52%077
21:09:38%077
21:10:25%077
21:10:27%077
21:10:49%077
21:12:00%077
21:12:47%077
21:13:38%077
21:13:56%077
21:13:58%076
21:14:13%076
21:14:21%076
21:15:56%076
21:16:50%076
21:17:02%076
21:17:31%076
21:18:35%076
21:18:41%076
21:19:05%076
21:20:40%076
21:21:27%077
21:21:47%077
21:21:50%077
21:22:56%077
21:23:01%077
21:24:56%078
21:28:27%080
21:28:27%080
21:28:32%080
21:28:56%080
21:29:03%080
21:29:20%080
21:29:37%080
21:29:37%080
21:29:43%080
21:29:55%080
21:30:07%080
21:30:12%081
21:30:13%081
21:30:29%081
21:30:29%081
21:30:30%081
21:30:30%081
21:30:30%081
21:30:47%081
21:30:47%081
21:30:48%081
21:30:54%081
21:31:18%081
21:31:22%081
21:31:39%081
21:31:40%081
21:31:40%081
21:31:57%081
21:32:13%081
21:32:14%081
21:32:15%081
21:32:29%081
21:32:50%081
21:32:52%082
21:33:06%082
21:33:07%082
21:33:16%082
21:34:03%082
21:34:16%082
21:34:16%082
21:34:17%082
21:34:17%082
21:34:27%082
21:34:34%082
21:34:34%082
21:35:09%082
21:35:09%082
21:35:14%082
21:35:26%082
21:35:26%082
21:35:38%082
21:36:00%082
21:36:01%082
21:36:18%082
21:36:19%082
21:36:25%082
21:36:36%082
21:36:49%082
21:36:53%082
21:36:53%082
21:37:10%082
21:37:11%082
21:37:11%082
21:37:12%082
21:37:36%082
21:38:21%082
21:38:24%082
21:38:38%082
21:38:47%082
21:39:30%082
21:39:34%082
21:39:48%082
21:39:48%082
21:39:58%082
21:40:05%081
21:40:06%081
21:40:22%081
21:40:40%081
21:40:45%081
21:40:57%081
21:40:57%081
21:40:58%081
21:40:58%081
21:40:58%081
21:41:09%081
21:41:15%081
21:41:15%081
21:41:15%081
21:41:50%081
21:41:56%081
21:42:07%081
21:42:20%081
21:43:07%080
21:43:17%080
21:43:31%080
21:43:34%080
21:43:35%080
21:43:35%080
21:43:54%080
21:44:09%080
21:44:09%080
21:44:25%080
21:44:26%080
21:44:27%080
21:44:27%080
21:44:27%080
21:44:41%080
21:44:44%080
21:44:44%080
21:44:45%080
21:45:01%080
21:45:01%079
21:45:02%079
21:45:02%079
21:45:02%079
21:45:05%079
21:45:19%079
21:45:29%079
21:45:37%079
21:45:37%079
21:45:54%079
21:45:54%079
21:45:54%079
21:45:54%079
21:46:11%079
21:46:11%079
21:46:12%079
21:46:16%079
21:46:40%079
21:46:47%078
21:47:08%078
21:48:14%078
21:49:01%078
21:49:23%077
21:49:25%077
21:50:32%077
21:50:48%077
21:51:00%077
21:51:12%077
21:51:47%076
21:52:00%076
21:52:01%076
21:52:01%076
21:52:25%076
21:52:50%076
21:52:52%076
21:52:52%076
21:52:58%076
21:53:14%076
21:53:39%076
21:53:45%076
21:53:45%076
21:54:02%076
21:54:03%076
21:54:03%076
21:55:16%075
21:56:05%075
21:56:56%074
21:57:14%074
21:57:14%074
21:57:18%074
21:57:41%074
21:57:48%074
21:58:07%074
21:58:29%073
21:59:20%073
21:59:34%073
21:59:39%073
22:00:09%073
22:00:50%072
22:01:14%072
22:01:38%071
22:02:36%071
22:02:45%071
22:02:49%071
22:03:12%071
22:03:20%070
22:03:24%070
22:03:49%070
22:03:54%070
22:03:55%070
22:03:59%070
22:04:38%070
22:05:26%069
22:06:49%068
22:07:04%068
22:07:09%068
22:07:28%068
22:07:53%068
22:07:58%068
22:08:15%068
22:08:16%068
22:08:17%068
22:08:42%067
22:09:43%067
22:09:54%067
22:11:57%065
22:12:20%065
22:12:21%065
22:12:54%065
22:12:54%065
22:13:03%065
22:13:11%064
22:13:26%064
22:13:47%064
22:13:59%064
22:14:14%064
22:14:23%064
22:14:47%064
22:15:01%063
22:15:14%063
22:15:25%063
22:16:01%063
22:16:12%063
22:16:23%063
22:16:24%063
22:17:00%062
22:17:15%062
22:17:23%062
22:18:03%062
22:18:27%062
22:18:42%062
22:18:51%062
22:19:34%061
22:19:35%061
22:19:40%061
22:20:04%061
22:20:53%061
22:21:42%061
22:22:53%061
22:23:03%061
22:23:17%061
22:24:04%060
22:24:14%060
22:24:28%060
22:25:15%060
22:25:40%060
22:25:46%060
22:26:02%060
22:26:33%060
22:27:07%060
22:27:07%060
22:27:13%060
22:27:25%060
22:27:37%060
22:28:00%060
22:28:01%060
22:28:34%059
22:28:36%059
22:29:43%059
22:29:44%059
22:29:50%059
22:30:14%059
22:30:19%059
22:31:03%059
22:33:30%058
22:33:31%058
22:35:06%058
22:35:49%058
22:37:08%058
22:38:39%057
22:39:02%057
22:39:49%057
22:42:50%057
22:43:22%056
23:24:15%050
23:54:59%049
23:55:54%049
00:01:40%049
00:02:00%049
00:02:12%049
00:04:49%049
00:56:21%046
03:00:30%042
03:04:57%042
03:28:29%041
03:31:43%041
03:39:25%040
03:47:03%040
03:50:59%040
03:51:28%040
03:54:07%040
03:55:18%040
03:57:40%040
04:06:35%040
04:06:59%040
04:07:48%040
04:08:01%040
04:08:17%040
04:09:01%040
04:16:08%040
04:20:46%040
04:21:35%040
04:39:20%040
04:39:34%040
04:41:18%040
04:45:37%040
04:46:18%040
04:48:44%039
04:52:19%039
04:53:06%039
04:55:51%039
05:04:30%039
05:10:10%039
05:15:04%039
05:17:28%039
05:18:39%039
05:21:00%039
05:32:25%039
05:34:22%039
05:36:57%038
05:38:10%038
05:43:01%038
05:46:41%038
05:50:57%038
05:50:59%038
05:54:23%038
05:56:47%038
06:07:45%037
06:09:45%037
06:19:35%037
06:20:40%037
06:30:02%036
06:34:55%036
06:37:17%037
06:39:14%037
06:40:01%037
06:40:09%037
06:40:24%037
06:40:49%037
06:40:59%037
06:46:14%037
06:50:18%037
06:51:06%037
06:53:08%037
06:53:32%037
06:53:56%037
06:57:11%037
07:00:04%037
07:01:14%037
07:04:58%037
07:06:22%037
07:06:30%037
07:07:02%037
07:10:57%037
07:12:15%037
07:13:22%037
07:17:14%037
07:18:57%037
07:21:28%037
07:22:42%037
07:28:24%037
07:31:37%039
07:32:26%040
07:33:56%041
07:36:48%043
07:37:17%043
07:39:30%046
08:57:38%075
09:00:01%075
10:10:07%067
10:10:30%067
10:11:13%067
10:11:37%067
10:12:18%067
10:12:26%067
10:13:10%067
10:13:10%067
10:13:14%067
10:14:37%066
10:14:50%066
10:14:55%066
10:15:11%066
10:16:05%066
10:17:12%066
10:18:32%065
10:18:47%065
10:19:10%065
10:20:45%064
10:21:47%064
10:22:35%063
10:23:06%063
10:23:40%063
10:24:13%062
10:24:37%062
10:25:02%062
10:25:21%062
10:25:22%062
10:25:26%062
10:26:31%061
10:26:39%061
10:27:05%061
10:27:06%061
10:27:26%061
10:28:13%060
10:28:37%060
10:29:01%060
10:29:25%060
10:29:30%060
10:29:43%059
10:30:19%059
10:31:09%059
10:31:32%059
10:31:44%058
10:31:46%058
10:33:11%058
10:33:25%058
10:33:34%057
10:34:08%057
10:34:23%057
10:36:00%057
10:36:49%056
10:38:26%056
10:39:15%056
10:39:38%056
10:40:53%056
10:41:36%056
10:41:53%056
10:41:53%056
10:41:53%056
10:42:00%056
10:42:24%056
10:42:30%055
10:43:54%055
10:44:46%055
10:44:47%055
10:44:47%055
10:44:56%055
10:45:04%055
10:45:05%055
10:45:09%055
10:45:45%055
10:46:20%055
10:46:34%055
10:47:55%055
10:48:11%055
10:48:32%055
10:48:33%055
10:48:36%055
10:49:08%055
10:49:25%055
10:49:49%055
10:50:13%055
10:50:17%055
10:50:38%055
10:52:38%055
10:53:21%055
10:54:12%054
10:54:36%054
10:55:54%054
10:56:05%054
10:56:40%054
10:56:43%054
10:56:58%054
10:57:56%054
10:58:25%054
11:00:22%053
11:01:35%053
11:01:35%053
11:01:36%053
11:02:11%053
11:02:38%053
11:05:24%053
11:07:41%052
11:09:33%052
11:10:00%052
11:10:07%052
11:11:27%051
11:14:41%051
11:16:37%051
11:16:56%051
11:17:00%051
11:17:50%051
11:18:24%050
11:19:03%050
11:19:52%050
11:21:05%050
11:23:53%050
11:23:54%050
11:23:55%050
11:24:44%050
11:27:40%050
11:29:24%049
11:29:32%049
11:30:33%049
11:30:51%049
11:31:08%049
11:31:59%049
11:32:18%049
11:34:04%049
11:34:55%049
11:35:31%049
11:36:04%049
11:38:20%049
11:38:41%049
11:39:14%049
11:42:03%049
11:43:49%048
11:45:20%048
11:45:51%048
11:47:21%048
11:49:56%048
11:51:31%048
11:53:27%048
11:53:44%048
11:56:25%048
11:57:12%048
11:57:30%048
11:57:47%048
11:57:49%048
11:58:44%047
12:00:58%047
12:02:40%047
12:03:04%047
12:04:44%047
12:05:54%047
12:06:11%047
12:06:32%047
12:12:07%046
12:13:43%046
12:14:05%046
12:15:15%046
12:16:19%046
12:17:05%046
12:21:10%045
12:22:06%045
12:22:21%045
12:23:20%045
12:26:16%045
12:27:38%045
12:36:30%044
12:52:15%043
13:15:03%042
13:31:11%042
13:31:32%042
13:34:20%042
13:52:02%041
13:53:52%041
13:54:02%041
13:54:47%041
13:58:30%041
13:59:07%042
14:00:17%044
14:01:05%044
14:01:24%044
14:01:58%045
14:02:16%045
14:03:46%047
14:04:00%048
14:05:43%049
14:07:45%051
14:09:13%052
14:12:17%054
14:13:15%055
14:13:30%055
14:13:54%055
14:14:12%055
14:14:26%055
14:14:27%055
14:17:33%056
14:17:55%056
14:19:04%056
14:19:10%056
14:19:20%056
14:19:59%056
14:20:20%056
14:21:31%056
14:21:57%056
14:22:01%056
14:22:15%056
14:22:19%056
14:26:04%056
15:15:59%059
15:22:29%062
17:42:51%054
17:43:01%054
17:48:09%053
17:48:58%053
17:49:31%053
17:49:54%053
18:05:21%051
18:52:42%046
19:26:06%042
19:29:24%041
19:31:08%042
19:31:38%042
19:35:29%048
19:36:03%049
19:36:04%050
19:36:55%051
19:37:09%052
19:37:52%053
19:39:05%054
19:39:53%056
19:41:06%057
19:41:51%059
19:42:39%060
19:43:01%060
19:43:03%061
19:44:11%061
19:44:14%061
19:45:20%062
19:45:21%062
19:45:24%062
20:01:33%073
20:17:40%073
20:44:29%072
21:00:38%069
21:09:17%068
21:09:22%068
21:10:53%067
21:11:01%067
21:11:13%067
21:12:03%067
21:12:29%067
21:12:34%067
21:13:14%066
21:13:47%066
21:13:55%066
21:13:56%066
21:14:12%066
21:14:30%066
21:14:36%066
21:15:05%065
21:15:05%065
21:15:23%065
21:15:25%065
21:16:14%065
21:17:02%064
21:17:59%064
21:18:11%064
21:18:34%064
21:18:40%064
21:19:29%063
21:19:53%063
21:22:37%062
21:22:38%062
21:22:44%062
21:23:48%061
21:23:57%061
21:24:46%061
21:24:57%061
21:25:10%061
21:25:50%061
21:26:14%061
21:27:01%061
21:27:36%060
21:28:50%060
21:29:14%060
21:30:14%060
21:30:45%060
21:30:51%060
21:31:16%060
21:31:21%060
21:32:05%060
21:32:53%060
21:33:18%059
21:33:22%059
21:33:42%059
21:34:55%059
21:35:24%059
21:35:44%059
21:36:08%059
21:36:28%059
21:36:57%059
21:37:08%059
21:37:15%059
21:37:43%059
21:39:27%059
21:39:37%059
21:40:02%059
21:40:02%059
21:40:12%059
21:40:24%059
21:42:03%058
21:42:22%058
21:42:39%058
21:43:03%058
21:43:52%058
21:44:16%058
21:44:23%058
21:44:57%058
21:44:58%058
21:45:53%058
21:46:18%058
21:46:24%058
21:46:59%058
21:47:56%057
21:48:17%057
21:49:04%057
21:49:51%057
21:49:53%057
21:49:57%057
21:50:47%057
21:51:07%057
21:51:26%057
21:51:59%057
21:52:47%056
21:52:48%056
21:52:48%056
21:53:24%056
21:56:16%056
21:56:27%056
21:56:52%056
21:57:37%055
21:58:53%055
21:59:18%055
22:00:05%055
22:02:03%055
22:02:08%055
22:04:02%054
22:04:40%054
22:04:49%054
22:05:23%054
22:06:12%054
22:06:26%054
22:07:21%054
22:07:58%054
22:08:45%054
22:09:03%053
22:09:51%053
22:11:20%053
22:11:29%053
22:12:41%053
22:12:55%053
22:13:23%053
22:14:39%053
22:15:27%053
22:17:08%052
22:17:09%052
22:17:10%052
22:17:43%052
22:18:17%052
22:18:18%052
22:18:18%052
22:18:52%052
22:18:53%052
22:19:36%052
22:20:48%052
22:22:08%052
22:23:15%052
22:23:40%052
22:24:06%052
22:28:49%051
22:31:23%051
22:33:25%051
22:33:49%051
22:34:16%051
22:35:26%050
22:36:39%050
22:38:41%050
22:39:44%050
22:40:37%050
22:40:38%050
22:41:02%050
22:41:32%050
22:42:38%050
22:42:45%050
22:43:00%050
22:45:21%050
22:46:00%049
22:46:25%049
22:47:19%049
22:47:51%049
22:48:01%049
22:48:26%049
22:48:50%049
22:49:01%049
22:49:06%049
22:50:03%049
22:51:26%049
22:51:39%049
22:52:30%049
22:56:57%049
22:57:25%049
22:57:33%049
23:00:12%048
23:01:50%048
23:02:38%048
23:03:27%048
23:06:41%048
23:06:42%048
23:07:00%048
23:08:08%048
23:09:22%048
23:13:11%048
23:15:33%048
23:17:37%048
23:18:01%048
23:20:30%048
23:40:47%048
23:41:32%048
23:45:12%048
23:45:15%048
23:50:17%048
23:50:56%048
23:53:22%048
23:53:46%048
23:55:27%048
23:55:48%048
23:57:50%048
23:59:03%048
23:59:27%048
00:02:18%048
00:03:31%048
01:42:00%039
01:55:03%038
01:56:31%038
02:09:30%038
02:24:14%037
02:28:42%037
02:37:42%036
02:37:48%036
02:52:13%036
03:40:51%034
03:48:09%034
03:53:00%034
05:53:43%029
05:55:45%029
06:46:46%028
07:33:20%026
07:37:18%026
07:37:26%026
07:37:47%026
07:41:33%033
07:44:39%039
07:45:48%042
07:45:53%042
07:48:03%046
07:49:08%048
07:50:17%050
07:52:28%053
07:52:38%053
07:52:46%054
07:53:35%055
08:07:46%061
08:08:45%061
08:08:59%061
09:31:21%054
09:34:58%053
09:36:04%053
09:45:25%050
09:46:19%049
09:47:13%049
09:47:32%049
09:48:01%049
09:48:21%048
09:49:04%048
09:49:28%048
09:49:34%048
09:52:48%047
09:57:35%045
09:58:29%045
09:59:36%045
09:59:39%045
10:00:03%045
10:01:20%045
10:01:43%045
10:02:13%044
10:02:32%044
10:02:56%044
10:07:37%043
10:08:32%043
10:11:03%043
10:13:28%043
10:13:46%042
10:13:53%042
10:17:32%042
10:20:36%042
10:24:01%042
10:51:11%039
10:53:12%039
10:55:14%039
11:03:20%038
11:05:14%038
11:06:10%038
11:11:51%038
11:12:32%038
11:15:19%038
11:18:06%037
11:19:26%037
11:25:59%037
11:27:50%037
11:43:27%036
11:46:17%036
11:55:37%035
12:03:42%035
12:04:06%035
12:09:25%035
12:12:20%035
12:16:31%034
12:18:41%034
12:21:07%034
12:23:29%034
12:23:55%034
12:24:45%034
12:26:11%034
12:28:14%034
12:28:49%034
12:35:27%033
12:35:32%033
12:40:09%033
12:40:58%033
12:41:46%033
12:49:53%033
12:50:46%033
12:50:50%033
12:54:05%033
13:09:51%033
13:29:58%033
13:32:24%033
13:39:41%033
13:42:31%033
13:47:47%032
13:49:48%032
13:54:40%032
14:01:57%032
14:02:14%032
14:03:38%032
14:04:47%032
14:08:43%032
14:23:24%031
14:23:49%031
14:27:52%031
14:29:29%031
14:30:27%031
14:41:39%039
14:44:52%044
14:53:22%053
14:55:48%054
14:57:21%054
14:57:26%054
14:58:14%055
15:00:16%056
15:01:04%056
15:01:28%056
15:02:34%057
15:02:41%057
15:02:58%057
15:03:30%057
15:04:19%057
15:05:17%058
15:06:20%058
15:06:20%058
15:07:12%059
15:07:29%059
15:07:33%059
15:08:22%059
15:08:46%059
15:09:11%060
15:10:24%060
15:11:12%061
15:13:38%062
15:14:03%062
15:14:27%063
15:15:57%063
15:16:28%064
15:16:29%064
15:16:53%064
15:17:03%064
15:17:17%064
15:17:42%064
15:18:12%065
15:19:43%066
15:20:08%066
15:20:15%066
15:20:48%066
15:20:49%066
15:20:57%066
15:22:16%066
15:22:33%066
15:22:58%066
15:23:47%066
15:24:11%066
15:25:13%066
15:25:44%066
15:25:49%066
15:26:54%065
15:26:54%065
15:27:02%065
15:27:26%065
15:27:47%065
15:27:50%065
15:28:04%065
15:28:14%065
15:29:49%064
15:30:05%064
15:30:06%064
15:30:16%064
15:31:33%063
15:32:43%062
15:33:06%062
15:34:44%061
15:35:08%061
15:35:36%061
15:35:57%061
15:36:46%060
15:37:10%060
15:37:35%060
15:37:55%060
15:37:55%060
15:37:59%060
15:39:22%059
15:39:37%059
15:40:31%059
15:40:49%059
15:41:27%059
15:42:33%059
15:42:50%059
15:42:51%059
15:43:15%059
15:44:04%059
15:44:28%059
15:46:05%059
15:48:04%059
15:48:07%059
15:50:09%060
15:51:12%060
15:51:22%060
15:51:33%060
15:51:39%060
15:55:26%060
15:56:39%061
16:00:14%061
16:00:18%061
16:00:49%061
16:01:06%061
16:01:41%061
16:01:55%061
16:02:15%061
16:02:15%061
16:02:20%061
16:03:08%061
16:06:54%061
16:06:57%061
16:08:00%061
16:08:25%061
16:08:50%061
16:09:38%061
16:10:02%061
16:10:40%061
16:10:57%061
16:11:15%061
16:11:15%061
16:13:41%062
16:14:26%062
16:14:30%062
16:14:54%062
16:16:27%062
16:16:32%062
16:18:09%062
16:20:49%062
16:21:00%062
16:21:24%062
16:22:13%062
16:23:07%062
16:23:11%062
16:23:25%062
16:23:26%062
16:24:14%062
16:25:52%063
16:26:01%063
16:26:19%063
16:26:19%063
16:26:41%063
16:27:05%063
16:27:28%063
16:27:29%063
16:29:07%063
16:29:56%063
16:30:39%063
16:30:44%063
16:32:22%063
16:33:33%063
16:33:51%063
16:33:59%064
16:34:08%064
16:34:25%064
16:34:48%064
16:35:36%064
16:36:01%064
16:37:06%064
16:38:03%064
16:39:38%064
16:39:40%064
16:40:13%064
16:40:21%064
16:40:48%064
16:40:53%064
16:41:58%064
16:42:06%064
16:43:19%064
16:43:43%064
16:43:58%064
16:44:08%064
16:44:17%064
16:44:31%064
16:44:51%064
16:44:57%064
16:46:34%064
16:46:35%064
16:46:50%064
16:46:58%064
16:47:47%064
16:49:00%064
16:50:33%064
16:50:39%064
16:51:48%064
16:51:51%064
16:52:52%064
16:54:17%065
16:57:02%065
16:57:19%065
16:57:30%065
16:57:54%065
16:57:54%065
16:57:55%065
16:58:42%066
16:59:05%066
16:59:29%066
16:59:38%066
16:59:58%066
17:01:05%067
17:01:11%067
17:01:40%067
17:03:02%067
17:03:13%068
17:03:25%068
17:10:54%072
17:28:22%077
17:28:48%078
17:30:02%078
17:30:11%078
17:30:25%078
17:31:22%078
17:32:03%078
17:32:25%078
17:32:25%078
17:32:28%078
17:35:41%077
17:36:32%077
17:42:29%073
17:42:38%073
17:45:04%071
17:48:19%068
17:49:52%067
17:55:14%063
17:56:02%063
18:09:23%059
18:14:57%058
18:20:34%056
18:30:00%054
18:37:05%052
18:42:36%051
18:43:47%051
18:45:59%050
18:49:14%050
18:50:23%050
18:51:35%049
18:54:21%049
19:01:24%048
19:07:11%047
19:08:42%047
19:09:31%047
19:11:57%047
19:13:15%046
19:23:18%045
19:26:49%045
19:27:46%045
19:28:18%045
19:28:36%045
19:32:14%044
19:33:51%044
19:39:20%044
19:40:10%044
19:40:43%044
19:41:33%043
19:43:10%043
19:46:50%043
19:48:03%043
19:48:50%043
19:49:25%043
19:53:19%043
19:54:32%042
19:56:08%042
19:58:41%042
19:59:00%042
20:01:25%042
20:02:14%042
20:03:00%042
20:06:18%042
20:06:42%042
20:07:31%042
20:12:22%041
20:12:39%041
20:15:01%041
20:15:32%041
20:16:50%041
20:17:14%041
20:19:47%041
20:22:01%041
20:25:14%041
20:27:07%040
20:28:00%040
20:31:40%040
20:33:40%040
20:33:58%040
20:34:15%040
20:35:51%041
20:38:36%043
20:39:32%044
20:40:21%045
20:42:22%047
20:42:47%047
20:46:08%051
20:46:50%052
20:48:43%054
20:48:49%054
20:49:36%055
20:49:36%055
20:49:37%055
20:50:00%055
20:50:29%056
20:51:59%057
20:52:47%057
20:52:47%057
20:52:55%057
20:54:48%059
20:55:08%059
20:55:45%059
20:56:34%060
20:57:07%060
20:57:08%060
20:57:08%060
20:57:23%060
20:58:00%060
20:58:36%061
20:59:24%061
20:59:45%061
20:59:49%061
21:00:02%061
21:00:13%061
21:00:19%061
21:00:36%061
21:00:36%061
21:00:53%061
21:00:54%061
21:01:01%061
21:01:25%061
21:01:45%062
21:01:46%062
21:01:49%062
21:02:36%062
21:02:38%062
21:02:39%062
21:02:56%062
21:02:59%062
21:03:48%062
21:03:52%062
21:05:44%062
21:07:56%062
21:08:44%062
21:10:10%062
21:10:10%062
21:10:22%062
21:11:20%063
21:11:20%063
21:11:35%063
21:12:24%063
21:12:48%063
21:13:13%063
21:14:01%063
21:15:35%063
21:15:41%063
21:16:03%063
21:17:25%063
21:17:25%063
21:18:52%063
21:18:52%063
21:18:53%063
21:19:31%063
21:21:51%062
21:22:08%062
21:22:20%062
21:22:21%062
21:22:21%062
21:22:33%062
21:22:57%062
21:23:21%062
21:23:46%062
21:23:51%062
21:24:40%062
21:24:59%062
21:26:25%062
21:26:36%062
21:26:41%062
21:26:42%062
21:27:00%062
21:27:49%062
21:28:10%062
21:29:01%062
21:29:02%062
21:29:53%061
21:30:08%061
21:31:03%061
21:31:04%061
21:32:06%061
21:32:42%061
21:34:14%060
21:34:14%060
21:34:49%060
21:34:49%060
21:34:51%060
21:35:32%060
21:36:50%059
21:37:07%059
21:37:58%059
21:38:22%059
21:39:10%059
21:40:00%059
21:40:01%058
21:40:45%058
21:41:32%058
21:41:56%058
21:43:07%057
21:44:03%057
21:44:18%057
21:44:27%056
21:44:40%056
21:45:05%056
21:45:40%056
21:46:29%055
21:46:59%055
21:47:17%055
21:48:14%055
21:49:36%053
21:54:47%053
21:57:40%054
21:57:59%054
21:58:52%054
21:59:53%054
22:01:11%055
22:01:12%055
22:02:23%055
22:02:38%055
22:02:43%055
22:03:07%055
22:04:44%055
22:05:32%055
22:07:06%056
22:07:18%056
22:07:53%056
22:09:04%056
22:10:28%056
22:10:33%056
22:11:26%056
22:11:39%056
22:13:40%056
22:14:05%056
22:14:53%056
22:15:05%056
22:15:11%056
22:15:42%057
22:16:15%057
22:16:31%057
22:16:32%057
22:16:49%057
22:16:50%057
22:17:24%057
22:17:24%057
22:17:24%057
22:17:31%057
22:18:16%058
22:18:31%058
22:20:59%059
22:21:28%059
22:21:40%059
22:22:03%059
22:22:03%059
22:22:20%059
22:22:20%059
22:22:20%059
22:22:27%059
22:22:54%059
22:23:00%059
22:23:14%059
22:23:30%059
22:23:49%059
22:24:56%060
22:24:57%060
22:25:02%060
22:25:14%060
22:25:27%060
22:26:06%060
22:26:15%060
22:26:47%060
22:26:58%060
22:26:59%060
22:27:04%060
22:27:28%060
22:27:33%060
22:27:34%060
22:29:06%061
22:29:30%061
22:30:19%061
22:31:02%061
22:31:02%061
22:31:06%061
22:31:30%061
22:31:54%061
22:32:17%061
22:32:49%062
22:34:13%062
22:34:15%062
22:36:37%063
22:36:49%063
22:37:00%063
22:37:47%063
22:37:59%063
22:38:01%063
22:38:58%064
22:39:43%064
22:39:43%064
22:39:46%064
22:40:03%064
22:42:05%065
22:42:37%065
22:42:54%065
22:43:42%065
22:44:05%065
22:45:32%066
22:45:40%066
22:46:03%066
22:46:58%066
22:46:59%066
22:47:14%066
22:47:16%066
22:47:22%066
22:47:38%067
22:48:09%067
22:48:11%067
22:49:23%067
22:49:36%067
22:50:45%067
22:50:45%067
22:51:01%067
22:51:10%067
22:51:20%067
22:51:20%067
22:51:20%067
22:51:25%067
22:51:54%067
22:51:54%067
22:51:58%067
22:52:14%067
22:52:29%067
22:52:30%067
22:52:38%067
22:52:47%067
22:52:47%067
22:53:03%067
22:53:04%068
22:53:08%068
22:53:22%068
22:53:27%068
22:53:39%068
22:53:51%068
22:54:16%068
22:54:32%068
22:54:37%068
22:55:06%068
22:55:23%068
22:55:29%068
22:56:01%068
22:56:41%068
22:56:51%068
22:57:06%068
22:57:31%068
22:58:34%068
22:58:34%068
22:58:35%068
22:58:39%068
22:59:02%068
22:59:15%068
23:01:24%069
23:02:04%069
23:02:11%069
23:02:48%069
23:07:16%069
23:08:06%069
23:08:26%069
23:08:29%069
23:09:40%069
23:11:19%069
23:11:44%069
23:13:46%069
23:14:00%069
23:14:34%069
23:17:50%069
23:18:38%069
23:19:03%069
23:19:27%069
23:19:52%069
23:20:08%069
23:22:16%069
23:23:51%069
23:24:24%069
23:24:38%069
23:25:16%069
23:25:16%069
23:25:25%069
23:25:34%069
23:25:49%069
23:25:57%069
23:26:27%069
23:26:36%069
23:27:10%069
23:28:23%069
23:28:28%069
23:28:34%069
23:29:12%069
23:29:45%069
23:30:30%069
23:30:32%069
23:31:56%069
23:32:03%069
23:32:27%069
23:32:48%069
23:32:49%069
23:32:49%069
23:32:52%069
23:33:23%069
23:33:24%069
23:33:35%069
23:35:25%069
23:35:43%069
23:35:44%069
23:36:00%069
23:36:00%069
23:36:03%069
23:36:18%069
23:36:18%069
23:36:21%069
23:36:35%068
23:36:35%068
23:36:50%068
23:37:37%068
23:38:02%068
23:38:09%068
23:38:37%068
23:38:41%068
23:38:57%067
23:39:36%067
23:39:47%067
23:39:59%067
23:40:10%067
23:40:23%067
23:41:33%066
23:42:40%066
23:42:44%066
23:42:58%066
23:43:08%066
23:43:25%065
23:43:55%065
23:45:35%065
23:45:35%065
23:46:44%065
23:47:02%064
23:47:05%064
23:48:11%064
23:48:15%064
23:49:02%064
23:49:38%064
23:50:14%064
23:50:30%064
23:50:31%064
23:50:37%064
23:52:08%064
23:52:50%064
23:52:50%064
23:52:58%064
23:53:10%064
23:53:45%064
23:54:23%064
23:56:08%064
23:56:25%064
23:56:46%064
23:56:54%064
23:57:38%064
00:00:27%064
00:01:18%064
00:02:25%064
00:03:12%064
00:03:20%064
00:03:59%064
00:06:11%064
00:06:35%064
00:07:20%064
00:07:24%064
00:09:04%064
00:09:07%064
00:09:22%063
00:11:27%063
00:12:40%063
00:13:26%063
00:13:26%063
00:13:50%063
00:15:10%063
00:15:25%063
00:15:27%063
00:15:31%063
00:16:02%062
00:16:12%062
00:18:39%062
00:18:46%062
00:20:08%062
00:20:48%062
00:21:12%062
00:22:17%062
00:22:25%062
00:24:03%062
00:24:25%062
00:24:27%061
00:25:02%061
00:25:16%061
00:25:35%061
00:25:38%061
00:27:42%061
00:28:00%061
00:28:12%061
00:29:05%061
00:29:11%061
00:29:40%061
00:29:44%061
00:30:22%061
00:31:59%061
00:32:10%061
00:32:34%061
00:32:35%061
00:32:59%061
00:33:31%061
00:34:01%061
00:34:12%061
00:34:18%061
00:34:35%061
00:34:36%061
00:35:25%061
00:35:29%061
00:36:12%061
00:36:36%061
00:36:36%061
00:36:37%061
00:37:03%061
00:38:39%061
00:38:40%061
00:39:49%061
00:41:23%060
00:41:50%060
00:41:56%060
00:43:21%060
00:43:57%060
00:44:21%060
00:45:18%060
00:45:19%060
00:45:43%060
00:45:59%060
00:46:30%060
00:47:12%060
00:47:41%060
00:48:25%060
00:48:43%060
00:49:38%059
00:49:56%059
00:49:57%059
00:51:37%059
00:51:41%059
00:51:58%059
00:51:59%059
00:52:01%059
00:52:16%059
00:52:16%059
00:53:12%059
00:53:26%059
00:53:35%059
00:53:59%059
00:54:55%059
00:56:19%058
00:56:20%058
00:56:37%058
00:56:44%058
00:56:57%058
00:57:21%058
00:58:10%058
00:59:13%058
00:59:29%058
01:00:36%058
01:01:00%058
01:02:13%058
01:03:25%058
01:04:36%057
01:04:44%057
01:04:44%057
01:05:01%057
01:05:04%057
01:05:18%057
01:05:18%057
01:05:19%057
01:05:24%057
01:05:47%057
01:06:17%057
01:06:35%057
01:07:06%057
01:07:45%057
01:08:09%057
01:08:30%057
01:08:47%057
01:08:47%057
01:08:56%057
01:09:32%057
01:10:14%057
01:10:21%057
01:11:06%057
01:11:09%057
01:11:34%057
01:12:23%057
01:12:47%057
01:12:51%057
01:12:51%057
01:13:07%057
01:13:08%057
01:13:25%057
01:13:36%057
01:13:42%057
01:13:46%057
01:14:17%057
01:14:52%057
01:15:13%057
01:15:44%057
01:16:20%057
01:17:12%057
01:18:21%057
01:18:23%057
01:18:46%058
01:19:10%058
01:19:31%058
01:19:31%058
01:19:57%058
01:20:15%058
01:21:18%059
01:21:33%059
01:21:43%059
01:21:49%059
01:21:50%059
01:21:50%059
01:21:55%059
01:22:42%060
01:23:21%060
01:23:45%060
01:24:44%061
01:24:58%061
01:25:01%061
01:25:04%061
01:25:18%061
01:25:21%061
01:25:47%061
01:27:20%062
01:27:24%062
01:27:40%062
01:28:30%062
01:28:30%062
01:28:36%062
01:29:00%062
01:29:22%062
01:29:24%062
01:29:47%062
01:30:35%062
01:30:49%063
01:32:15%063
01:32:16%063
01:33:14%063
01:33:43%063
01:35:18%063
01:36:05%063
01:36:19%063
01:36:19%063
01:36:20%063
01:36:54%063
01:37:09%063
01:37:28%064
01:37:28%064
01:37:33%064
01:38:46%064
01:39:11%064
01:39:14%064
01:39:35%064
01:39:59%064
01:40:05%064
01:40:24%064
01:40:49%064
01:41:36%064
01:42:00%064
01:42:47%064
01:43:34%064
01:43:39%064
01:44:09%064
01:44:21%064
01:44:27%064
01:45:36%064
01:45:41%064
01:45:56%064
01:46:46%064
01:46:54%064
01:48:18%064
01:48:30%064
01:48:31%064
01:49:39%064
01:49:39%064
01:49:44%064
01:50:14%064
01:50:16%064
01:51:59%063
01:52:59%063
01:53:26%063
01:53:43%063
01:54:53%063
01:54:59%063
01:55:10%063
01:55:27%063
01:56:10%062
01:56:39%062
01:57:49%062
01:58:40%062
02:00:06%062
02:00:42%062
02:01:07%062
02:01:33%062
02:01:40%062
02:02:25%062
02:02:25%062
02:02:28%062
02:02:43%062
02:02:44%062
02:03:35%062
02:03:39%062
02:04:46%062
02:05:35%062
02:05:37%062
02:06:45%062
02:06:45%062
02:06:48%062
02:07:38%063
02:07:54%063
02:08:50%063
02:10:03%063
02:10:14%063
02:10:20%063
02:10:43%063
02:11:54%063
02:12:18%063
02:13:26%063
02:13:52%063
02:15:50%063
02:16:38%063
02:17:22%063
02:18:10%063
02:18:39%063
02:18:59%063
02:19:24%063
02:19:47%063
02:20:06%063
02:20:10%063
02:20:33%063
02:21:01%063
02:21:21%063
02:21:45%063
02:22:07%063
02:22:08%063
02:22:08%063
02:23:34%063
02:23:34%063
02:23:43%063
02:24:45%063
02:24:54%063
02:25:02%063
02:26:11%063
02:26:18%063
02:28:50%062
02:29:33%062
02:29:40%062
02:29:57%062
02:30:01%062
02:30:21%062
02:31:10%062
02:32:22%062
02:33:09%062
02:33:10%062
02:33:33%062
02:33:57%062
02:34:18%062
02:34:20%062
02:34:35%062
02:34:50%062
02:35:08%062
02:36:42%062
02:36:55%062
02:37:06%062
02:38:05%062
02:39:04%062
02:39:42%062
02:39:51%062
02:40:31%062
02:40:55%062
02:41:02%062
02:42:08%062
02:42:26%062
02:42:37%062
02:43:52%062
02:44:10%062
02:44:58%062
02:45:22%062
02:45:54%062
02:46:03%062
02:46:12%062
02:46:31%062
02:46:56%062
02:47:21%062
02:47:25%062
02:47:44%062
02:47:56%062
02:48:07%062
02:49:05%062
02:49:46%062
02:50:15%062
02:50:16%062
02:50:40%062
02:51:07%062
02:51:09%062
02:52:03%062
02:53:09%062
02:53:28%062
02:53:44%062
02:54:01%062
02:54:02%062
02:54:44%062
02:55:11%062
02:55:12%062
02:55:57%062
02:56:43%062
02:57:34%062
02:57:58%062
02:58:22%062
02:58:23%062
02:59:03%062
02:59:56%062
03:00:43%062
03:01:06%062
03:01:54%062
03:02:25%062
03:02:27%062
03:03:28%062
03:04:05%062
03:05:42%062
03:06:11%062
03:06:12%062
03:06:29%062
03:06:31%062
03:08:57%061
03:09:42%061
03:10:33%061
03:10:49%061
03:10:57%061
03:11:44%061
03:12:08%061
03:12:51%061
03:12:55%061
03:13:42%061
03:15:16%061
03:16:04%061
03:16:40%061
03:17:53%061
03:18:18%060
03:22:46%060
03:23:10%060
03:23:59%060
03:24:10%060
03:24:48%060
03:25:07%060
03:25:31%060
03:25:37%060
03:25:55%060
03:27:05%059
03:27:29%059
03:27:52%059
03:27:56%059
03:28:16%059
03:28:39%059
03:29:11%059
03:29:50%059
03:30:15%059
03:31:07%059
03:31:18%059
03:32:36%059
03:33:44%059
03:34:33%058
03:36:02%058
03:36:03%058
03:36:10%058
03:39:49%058
03:40:06%058
03:40:14%058
03:40:51%058
03:42:26%057
03:43:52%057
03:44:29%057
03:45:02%057
03:45:55%057
03:46:43%057
03:47:21%057
03:47:32%057
03:47:45%057
03:48:48%057
03:49:05%057
03:49:08%057
03:49:55%056
03:49:58%056
03:50:19%056
03:50:49%056
03:50:50%056
03:52:40%056
03:53:26%056
03:53:27%056
03:53:51%056
03:54:01%056
03:54:02%056
03:55:15%056
03:56:28%056
03:56:53%056
03:57:17%055
03:57:47%055
04:00:41%055
04:01:11%055
04:01:19%055
04:02:09%055
04:02:30%055
04:03:41%054
04:04:05%054
04:04:11%054
04:04:52%054
04:05:39%054
04:06:13%054
04:07:20%054
04:08:15%054
04:08:30%054
04:09:12%054
04:11:06%053
04:11:10%053
04:12:15%053
04:12:18%053
04:13:15%053
04:15:30%053
04:16:37%053
04:16:40%053
04:19:37%052
04:19:49%052
04:20:12%052
04:21:23%052
04:22:24%052
04:22:24%052
04:22:27%052
04:22:41%052
04:22:52%052
04:23:40%052
04:24:29%052
04:25:17%051
04:27:02%051
04:27:10%051
04:28:52%051
04:31:23%051
04:32:36%051
04:33:12%051
04:33:25%051
04:35:10%050
04:35:44%050
04:36:21%050
04:37:29%050
04:37:49%050
04:38:37%050
04:38:42%050
04:39:12%050
04:39:28%050
04:40:56%050
04:42:28%050
04:44:13%050
04:44:42%050
04:47:37%049
04:48:09%049
04:48:30%049
04:48:51%049
04:49:39%049
04:52:28%049
04:52:40%049
04:53:16%049
04:54:49%049
04:55:08%049
04:55:42%049
04:55:42%049
04:56:01%049
05:03:20%048
05:04:43%048
05:05:04%048
05:05:28%048
05:06:14%047
05:09:08%047
05:09:23%047
05:09:47%047
05:11:10%047
05:11:21%047
05:11:58%047
05:14:00%047
05:15:42%047
05:16:19%047
05:16:47%047
05:17:15%047
05:17:40%047
05:18:38%046
05:20:54%046
05:21:10%046
05:21:11%046
05:22:07%046
05:25:49%046
05:27:48%046
05:29:01%046
05:30:09%045
05:31:38%045
05:32:46%045
05:36:32%045
05:37:43%045
05:39:10%044
05:39:59%044
05:40:04%044
05:41:11%044
05:41:27%044
05:41:44%044
05:43:46%044
05:44:00%044
05:44:09%044
05:46:39%044
05:47:14%044
05:47:51%043
05:48:54%043
05:49:07%043
05:49:18%043
05:50:31%043
05:56:30%043
05:57:05%043
05:58:34%042
05:58:57%042
05:59:21%042
05:59:45%042
06:00:55%042
06:02:53%042
06:04:04%042
06:05:31%042
06:06:19%042
06:07:33%042
06:10:23%041
06:11:49%041
06:11:50%041
06:11:56%041
06:13:30%041
06:13:54%041
06:14:18%041
06:15:28%041
06:15:40%041
06:16:15%041
06:16:28%041
06:19:21%041
06:19:24%041
06:21:43%040
06:22:31%040
06:25:41%040
06:27:10%040
06:27:26%040
06:28:39%040
06:29:14%040
06:29:52%040
06:37:35%039
06:39:19%039
06:42:01%038
06:43:14%038
06:43:22%038
06:44:26%038
06:44:34%038
06:44:52%038
06:46:50%038
06:51:15%038
06:54:24%038
06:55:34%037
06:57:33%037
06:58:44%037
06:59:44%037
07:02:16%037
07:03:03%037
07:03:50%037
07:05:24%037
07:06:59%037
07:08:23%036
07:08:57%036
07:09:11%036
07:13:39%036
07:15:58%036
07:18:56%036
07:21:04%035
07:30:48%035
07:52:08%059
08:07:26%063
08:13:25%061
08:34:46%064
08:35:15%064
08:35:27%064
08:42:29%062
08:44:31%062
08:45:17%062
08:49:13%061
09:02:09%060
09:08:07%059
09:11:16%058
09:21:03%056
09:25:48%056
09:26:13%056
09:27:12%056
09:36:27%055
09:40:08%055
09:49:02%054
09:59:37%053
10:01:31%053
10:15:47%050
10:17:17%050
10:17:45%050
10:19:30%050
10:20:54%050
10:30:21%048
10:36:57%048
10:38:37%047
10:39:00%047
10:44:39%047
10:45:41%047
10:48:43%046
11:02:13%045
11:10:08%044
11:21:34%043
11:30:08%043
11:31:18%043
11:34:04%043
11:39:21%042
11:40:17%042
11:43:06%042
11:43:53%042
11:44:00%042
11:47:07%041
11:59:37%040
12:05:08%040
12:05:57%040
12:06:18%040
12:08:40%040
12:26:39%039
12:33:26%039
12:34:37%039
12:36:10%038
12:40:07%038
12:40:30%038
13:00:57%048
13:02:07%048
13:02:50%049
13:05:40%051
13:08:35%053
13:09:48%054
13:12:39%056
13:13:21%057
13:13:32%057
13:13:56%057
13:15:29%058
13:20:21%060
13:23:11%061
13:24:09%062
13:24:24%062
13:26:02%062
13:26:26%063
13:27:39%063
13:28:43%063
13:28:43%063
13:28:52%063
13:29:15%064
13:29:39%064
13:30:26%064
13:30:27%064
13:30:27%064
13:30:29%064
13:31:42%064
13:34:33%065
13:35:09%065
13:35:32%066
13:35:40%066
13:35:46%066
13:58:54%070
14:11:30%072
14:12:18%072
14:15:07%073
14:15:09%073
14:24:30%074
14:29:47%075
14:30:13%075
14:30:37%075
15:45:25%060
16:10:17%058
16:10:36%058
16:19:39%056
16:25:33%055
16:48:44%053
16:49:34%053
16:51:59%054
16:52:18%054
17:24:52%054
17:29:20%054
17:35:12%054
17:42:19%054
17:43:53%054
17:46:23%053
17:52:04%053
17:54:06%053
18:04:14%053
18:04:39%053
18:22:05%052
18:28:36%052
18:29:20%052
18:34:41%051
18:38:37%051
18:39:45%051
18:39:57%051
18:42:56%051
18:43:36%051
18:50:06%051
19:00:25%051
19:03:30%051
19:06:44%047
19:10:48%050
19:18:30%050
19:21:43%049
19:28:30%049
19:29:17%049
19:30:28%049
19:33:37%050
19:34:47%050
19:43:05%053
19:44:56%054
19:46:12%054
19:47:23%055
19:48:57%055
19:49:06%055
19:50:31%055
19:52:30%055
19:53:40%055
19:55:36%056
19:55:39%056
19:58:00%055
20:05:05%055
20:10:27%055
20:14:32%055
20:26:19%056
20:28:20%056
20:35:38%056
20:43:38%055
20:44:34%055
20:46:11%055
20:47:34%055
20:48:02%055
20:48:13%055
20:52:16%055
20:53:28%055
20:55:51%055
20:55:51%055
20:55:51%055
20:56:13%055
20:56:45%055
21:02:01%054
21:03:14%054
21:06:05%054
21:07:38%054
21:08:07%054
21:10:47%054
21:11:22%054
21:12:45%054
21:12:56%054
21:12:57%054
21:12:59%054
21:13:48%054
21:13:56%054
21:15:23%054
21:15:54%054
21:19:02%054
21:22:35%053
21:22:59%053
21:23:08%053
21:23:57%053
21:24:09%053
21:24:21%053
21:28:24%053
21:30:03%053
21:30:50%053
21:37:20%051
21:38:33%051
21:44:14%051
21:45:24%051
21:46:58%051
21:49:31%052
21:58:26%052
22:03:30%052
22:04:17%052
22:11:30%052
22:21:59%052
22:37:20%052
22:41:04%052
22:44:48%052
22:49:08%052
22:50:24%052
22:59:16%052
23:03:18%052
23:05:25%051
23:09:12%051
23:11:06%051
23:15:53%051
23:22:52%051
23:28:28%050
23:34:38%049
23:38:52%049
23:40:40%049
23:41:32%049
23:46:10%049
23:48:55%048
23:54:47%048
00:00:02%047
00:01:30%047
00:02:14%047
00:13:18%046
00:14:28%046
00:20:50%047
00:26:58%049
00:30:06%050
00:35:54%051
00:38:04%051
00:38:20%052
00:39:55%052
00:41:10%052
00:42:25%052
00:44:05%052
00:48:15%052
00:49:39%052
00:51:02%052
00:52:08%052
00:55:47%053
01:00:31%053
01:00:48%053
01:06:25%053
01:09:10%053
01:10:21%053
01:10:23%053
01:12:42%053
01:12:59%053
01:16:05%054
01:17:17%054
01:19:47%054
01:21:22%054
01:22:09%054
01:26:17%054
01:28:26%054
01:29:37%054
01:31:12%054
01:31:31%054
01:33:34%054
01:33:55%054
01:35:06%054
01:35:55%054
01:47:10%052
01:50:24%052
02:13:08%051
02:25:05%050
02:28:14%050
02:29:31%050
02:32:45%050
02:34:56%050
02:35:24%050
02:37:15%049
02:39:34%049
02:44:46%049
02:49:48%049
02:50:12%049
02:51:25%049
02:51:26%049
02:53:48%049
03:00:06%050
03:00:21%050
03:04:43%050
03:09:08%050
03:11:06%050
03:16:12%049
03:20:57%049
03:23:04%049
03:24:33%049
03:28:25%048
03:33:32%048
03:40:13%048
03:42:58%048
03:45:19%048
03:46:36%048
03:47:16%047
03:50:50%047
03:52:00%047
03:53:58%047
03:54:14%047
04:04:26%047
04:10:53%046
04:13:15%046
04:27:58%045
04:28:35%045
04:32:50%045
04:36:45%045
04:48:37%044
04:54:44%044
04:55:43%044
04:58:41%043
05:09:29%043
05:09:44%043
05:11:50%043
05:15:25%043
05:16:10%043
05:18:08%043
05:19:04%043
05:26:46%042
05:36:54%042
05:38:07%042
05:43:18%042
05:46:03%042
05:46:38%042
05:47:51%042
05:51:07%041
05:58:48%041
06:01:23%041
06:05:42%041
06:05:55%041
06:10:33%041
06:12:00%040
06:18:16%040
06:23:00%040
06:23:56%040
06:25:34%040
06:29:37%040
06:37:27%039
06:38:50%039
06:40:42%039
06:43:48%039
06:44:52%039
06:57:35%038
07:01:32%038
07:10:09%038
07:14:12%038
07:18:02%038
07:24:45%037
07:29:36%039
07:33:46%049
07:34:04%050
07:36:48%054
07:40:57%057
07:41:22%057
07:42:22%057
07:46:32%057
07:49:28%057
07:53:07%055
07:53:56%054
07:56:46%051
08:08:07%046
08:14:37%047
08:27:35%047
08:29:55%047
08:30:00%047
08:35:54%047
08:38:08%046
08:39:45%046
08:44:12%046
08:46:38%045
08:47:03%045
08:53:08%045
08:55:09%045
08:57:08%045
09:12:10%045
09:15:26%045
09:17:25%045
09:20:11%045
09:22:53%045
09:30:25%044
09:34:29%044
09:37:43%044
10:08:18%044
10:18:54%044
10:19:28%044
10:20:52%044
10:24:44%044
10:31:06%043
10:31:38%043
10:32:02%043
10:35:41%043
10:39:20%043
10:45:03%048
10:49:52%053
10:51:05%054
10:53:31%056
10:54:20%057
10:59:53%060
11:00:48%061
11:01:22%061
11:02:51%062
11:04:28%062
11:08:13%063
11:08:27%063
11:10:49%064
11:10:58%064
11:15:26%065
11:15:50%066
11:17:30%066
11:26:47%062
11:27:44%062
11:30:51%059
11:33:15%057
11:34:02%057
11:36:47%054
11:43:50%050
11:52:45%049
11:56:00%048
11:56:49%048
11:57:08%048
12:01:16%048
12:15:43%045
12:16:06%045
12:21:33%044
12:29:39%042
12:32:29%042
12:33:25%042
12:45:29%040
12:49:32%040
12:50:19%040
12:53:10%040
12:53:58%040
12:58:02%039
13:04:52%039
13:07:45%038
13:21:08%037
13:41:02%036
13:41:23%036
13:42:12%036
13:43:17%036
13:43:23%036
13:46:32%036
13:49:41%036
14:01:39%035
14:13:48%035
14:18:22%035
14:19:04%035
14:24:39%034
14:26:37%034
14:30:25%034
14:33:39%034
14:38:48%034
14:44:11%034
14:47:25%034
14:49:27%034
15:17:43%033
15:27:07%032
15:29:53%032
15:30:21%032
15:31:04%032
15:33:25%032
15:45:21%032
15:48:11%032
15:52:11%031
15:53:49%031
15:56:13%031
16:02:09%031
16:02:54%031
16:03:58%031
16:11:40%031
16:16:56%031
16:17:20%031
16:19:20%031
16:20:10%031
16:21:22%031
16:23:24%031
16:30:42%030
16:33:32%030
16:44:20%030
16:55:24%030
16:57:19%030
17:06:44%029
17:08:27%029
17:08:45%029
17:14:25%029
17:20:29%029
17:28:32%029
17:30:07%029
17:31:01%029
17:31:38%029
17:34:40%029
17:43:41%029
17:43:51%029
17:46:55%028
17:49:14%028
17:59:21%028
18:03:54%028
18:05:56%028
18:06:14%028
18:07:27%028
18:08:13%028
18:27:41%028
18:31:25%028
18:36:06%028
18:47:31%028
18:49:32%028
18:50:45%028
18:51:21%028
18:52:22%028
18:53:00%028
18:53:23%028
19:00:04%028
19:01:17%028
19:11:28%028
19:11:48%028
19:13:48%028
19:15:02%028
19:15:26%028
19:15:51%028
19:21:06%028
19:21:29%028
19:43:46%053
19:45:23%056
19:47:49%059
19:48:14%059
19:49:03%060
19:51:28%063
19:54:43%067
19:57:01%069
19:58:46%070
19:59:59%071
20:01:49%072
20:02:16%073
20:04:58%075
20:05:59%075
20:06:28%076
20:08:01%076
20:09:43%077
20:10:12%078
20:10:31%078
20:12:33%078
20:13:08%079
20:14:35%079
20:14:59%079
20:16:17%079
20:16:37%079
20:17:09%079
20:17:25%079
20:20:40%079
20:26:31%077
20:35:10%068
20:36:05%067
20:36:54%066
20:39:44%062
20:44:36%057
20:46:10%054
20:46:26%053
20:46:34%053
20:48:11%052
20:49:04%051
20:50:53%051
20:51:06%051
20:55:09%053
20:57:11%053
20:59:32%054
21:00:26%055
21:01:30%055
21:02:41%056
21:06:14%057
21:07:20%057
21:09:21%057
21:13:13%058
21:21:06%058
21:24:43%058
21:26:17%058
21:36:32%058
21:39:40%058
21:40:36%058
21:41:38%058
21:42:02%058
21:42:13%058
21:52:46%059
21:55:12%059
21:59:43%060
22:02:06%060
22:04:57%060
22:07:23%060
22:07:31%060
22:09:33%060
22:17:02%061
22:17:07%061
22:19:31%060
22:22:56%060
22:24:25%060
22:24:36%060
22:27:16%060
22:30:30%060
22:31:19%060
22:33:53%060
22:36:36%061
22:37:49%061
22:45:27%061
22:45:32%061
22:51:12%061
22:51:16%061
22:51:37%061
22:56:29%061
22:56:53%061
22:57:04%061
23:04:12%060
23:08:10%060
23:12:19%059
23:12:24%059
23:12:30%059
23:13:08%059
23:13:32%059
23:14:08%059
23:14:21%059
23:14:45%059
23:20:46%060
23:25:05%059
23:26:07%059
23:28:57%059
23:32:58%058
23:34:14%058
23:38:28%057
23:38:42%057
23:47:54%056
23:48:17%056
23:53:43%055
23:55:20%055
23:59:23%055
00:00:06%055
00:07:30%054
00:07:55%054
00:08:01%054
00:08:43%054
00:14:49%054
00:16:02%054
00:16:13%054
00:18:03%054
00:36:43%052
00:41:24%051
00:41:52%051
00:42:20%051
00:44:50%051
00:54:46%050
00:55:47%050
00:56:21%050
01:01:51%049
01:01:52%049
01:11:41%048
01:16:00%048
01:19:33%047
01:26:36%047
01:30:15%046
01:44:27%045
01:49:43%044
01:51:21%044
01:57:50%044
02:00:26%043
02:05:32%043
02:09:29%043
02:14:12%042
02:16:53%042
02:17:17%042
02:32:17%041
02:37:09%040
02:38:22%040
02:40:24%040
02:44:03%040
02:49:34%039
02:52:09%039
02:52:43%039
03:04:18%038
03:06:20%038
03:27:48%036
03:33:04%036
03:41:18%035
03:44:25%035
03:50:05%035
03:52:28%035
03:52:31%035
04:07:55%034
04:17:38%033
04:21:17%033
04:24:07%033
04:34:54%033
04:43:09%032
04:44:22%032
04:49:13%032
04:49:54%032
04:50:37%032
04:52:35%032
04:52:51%032
04:53:09%032
04:53:16%032
04:54:05%032
04:55:18%032
05:12:18%031
05:22:25%031
05:27:17%031
05:27:41%031
05:30:56%031
05:31:44%031
05:34:58%030
05:45:30%030
05:48:19%030
05:51:34%030
05:54:49%030
05:55:37%030
06:10:05%030
06:20:58%029
06:22:45%029
06:25:59%029
06:36:06%029
06:40:09%029
06:42:59%029
07:04:02%028
07:06:03%028
07:14:09%028
07:21:50%028
07:26:11%028
07:27:30%028
07:31:57%028
07:37:37%028
07:38:22%028
07:51:23%029
07:52:36%029
08:02:43%029
08:07:21%029
08:10:48%029
08:12:08%029
08:14:51%029
08:27:16%029
08:27:48%029
08:28:36%029
08:41:33%029
08:48:16%029
08:51:40%029
08:57:45%028
09:01:23%028
09:03:00%028
09:05:33%028
09:09:29%028
09:22:54%028
09:24:02%028
09:32:08%028
09:35:22%028
09:43:15%028
09:43:52%028
09:49:46%028
09:55:36%028
10:00:03%028
10:05:43%027
10:23:06%027
10:25:56%027
10:36:34%027
10:41:18%027
10:42:31%027
10:48:59%027
10:51:01%027
10:55:52%027
10:59:06%027
11:09:13%027
11:17:29%026
11:18:55%026
11:20:38%026
11:20:56%026
11:21:30%026
11:22:58%026
11:24:05%026
11:30:27%026
11:30:39%026
11:32:16%026
11:44:24%026
11:49:12%026
11:52:50%026
11:54:31%026
11:57:56%026
12:08:40%026
12:11:17%026
12:12:19%026
12:19:32%026
12:27:35%026
12:38:27%026
12:44:15%025
12:52:20%025
12:58:24%025
13:07:18%025
13:07:43%025
13:14:06%025
13:18:13%025
13:25:42%025
13:29:08%025
13:31:33%025
13:34:23%025
13:54:27%025
13:58:14%025
13:59:05%025
13:59:38%025
14:11:11%025
14:28:09%024
14:35:02%024
14:41:28%024
14:57:21%024
15:06:09%024
15:06:58%024
15:10:12%024
15:11:29%024
15:17:52%024
15:21:31%029
15:21:53%029
15:23:56%034
15:26:46%038
15:44:34%062
15:44:59%062
15:47:19%064
15:52:16%070
15:58:21%075
15:59:05%076
16:00:47%077
16:02:48%078
16:06:27%078
16:07:36%078
16:07:40%078
16:09:42%077
